<?xml version="1.0" encoding="utf-8"?>
<!-- Generator: Adobe Illustrator 25.2.0, SVG Export Plug-In . SVG Version: 6.00 Build 0)  -->
<svg version="1.1" id="Layer_1" xmlns="http://www.w3.org/2000/svg" xmlns:xlink="http://www.w3.org/1999/xlink" x="0px" y="0px"
	 viewBox="0 0 500 500" style="enable-background:new 0 0 500 500;" xml:space="preserve">
<style type="text/css">
	.st0{fill-rule:evenodd;clip-rule:evenodd;fill:#3B58A2;}
	.st1{fill-rule:evenodd;clip-rule:evenodd;fill:#ED1C24;}
</style>
<g>
	<path class="st0" d="M151.63,63.47c-2.21,113.29-22.42,230.63-107.57,315.52l47.55,0.29c61.2-97.16,74.52-194.88,76.57-315.8
		L151.63,63.47z"/>
	<path class="st0" d="M241.25,85.77h17.69c-1.45,90.11,35.97,171.53,108.75,228.61l-49.59,0.58
		C265.24,247.85,247.72,180.15,241.25,85.77z"/>
	<path class="st1" d="M212.84,32.18l16.84-0.29c-9.11,152.69,25.31,286.86,138.01,369.43h-73.36
		C203.37,302.59,212.24,175.53,212.84,32.18z"/>
	<path class="st1" d="M181.98,12.48h15.08c-0.33,162.13,9.27,320.83-83.51,453.43H40.79C164.75,364.71,180.72,190.27,181.98,12.48z"
		/>
	<path class="st0" d="M274.58,477.3h-38.24c-17.6,0-30.1-1.82-37.21-5.37c-7.11-3.58-10.7-7.74-10.7-12.43v-43.56h37.6v40.2
		c0,1.77,0.44,3.14,1.33,4.05c0.88,0.87,2.81,1.57,5.85,2c1.55,0.23,3.42,0.41,5.58,0.49c2.17,0.08,4.93,0.19,8.2,0.19h27.6V477.3z"
		/>
	<path class="st0" d="M325.05,447.02h45.89c7.68,0,13.96-5.35,13.96-11.89v-7.27c0-6.52-6.28-11.89-13.96-11.87l-51.43,0.08
		l-35.3,0.02l-0.17,61.21h35.48v-51.24l23.8-0.06c2.7-0.02,4.93,1.88,4.93,4.21v2.56c0,2.34-2.23,4.23-4.93,4.23h-18.27V447.02z"/>
	<path class="st0" d="M483.51,412.46h-62.52c-17.62,0-32.04,14.41-32.04,32.02l0,0c0,17.61,14.42,32,32.04,32h62.52v-10.43h-46.7
		c-4.79,0-8.7-3.9-8.7-8.69v-22.3c0-4.79,3.91-8.69,8.7-8.69h46.7V412.46z"/>
</g>
</svg>
